vehicle_group,liftable_lh_payload_low,liftable_lh_payload_rep,liftable_r_payload_low,liftable_r_payload_rep,liftable_u_payload_low,liftable_u_payload_rep,steered_lh_payload_low,steered_lh_payload_rep,steered_r_payload_low,steered_r_payload_rep,steered_u_payload_low,steered_u_payload_rep,length_axle_correction,width_correction,height_correction,volume_correction,coupling_point_correction,aero_correction,aero0_0,aero0_3,aero0_6,aero0_9,aero1_0,aero1_3,aero1_6,aero1_9,aero2_0,aero2_3,aero2_6,aero2_9,aero3_0,aero3_3,aero3_6,aero3_9,aero4_0,aero4_3,aero4_6,aero4_9,aero5_0,aero5_3,aero5_6,aero5_9,aero6_0,aero6_3,aero6_6,aero6_9,aero7_0,aero7_3,aero7_6,aero7_9,aero8_0,aero8_3,aero8_6,aero8_9
11101,---,---,---,---,---,---,0,0,0,0,0,0,1,0,1,0,0,1,0,0,0,0,-1.4,-2.7,-3,-3.7,-4,-3.4,-3.5,-4.7,-2.8,-3.2,-3.8,-4.9,-3.9,-4.1,-5.1,-6,-3.8,-5.8,-8.3,-8.7,-4.7,-6.8,-9.2,-10.1,-6.5,-6.4,-7.8,-9.4,-7.6,-7.7,-9.2,-10.9
11102,---,---,---,---,---,---,0,0,0,0,0,0,1,0,1,1,0,1,0,0,0,0,-1.1,-1.5,-2.9,-4.3,-2.4,-2,-3.5,-5.3,-3.5,-3,-3.8,-5.8,-4.4,-4.1,-5.5,-7.8,-4.4,-4.6,-6.4,-8.6,-5.5,-5.6,-8.1,-10.3,-5.7,-5.6,-8.1,-9.7,-6.9,-7.4,-9.8,-11.5
11201,---,---,---,---,---,---,0,0,0,0,0,0,1,0,1,0,0,1,0,0,0,0,-1.4,-2.7,-3,-3.7,-4,-3.4,-3.5,-4.7,-2.8,-3.2,-3.8,-4.9,-3.9,-4.1,-5.1,-6,-3.8,-5.8,-8.3,-8.7,-4.7,-6.8,-9.2,-10.1,-6.5,-6.4,-7.8,-9.4,-7.6,-7.7,-9.2,-10.9
11301,---,---,---,---,---,---,0,0,0,0,0,0,1,0,1,0,0,1,0,0,0,0,-1.4,-2.7,-3,-3.7,-4,-3.4,-3.5,-4.7,-2.8,-3.2,-3.8,-4.9,-3.9,-4.1,-5.1,-6,-3.8,-5.8,-8.3,-8.7,-4.7,-6.8,-9.2,-10.1,-6.5,-6.4,-7.8,-9.4,-7.6,-7.7,-9.2,-10.9
11302,---,---,---,---,---,---,0,0,0,0,0,0,1,0,1,1,0,1,0,0,0,0,-1.1,-1.5,-2.9,-4.3,-2.4,-2,-3.5,-5.3,-3.5,-3,-3.8,-5.8,-4.4,-4.1,-5.5,-7.8,-4.4,-4.6,-6.4,-8.6,-5.5,-5.6,-8.1,-10.3,-5.7,-5.6,-8.1,-9.7,-6.9,-7.4,-9.8,-11.5
11401,---,---,---,---,---,---,0,0,0,0,0,0,1,0,1,0,0,1,0,0,0,0,-1.4,-2.7,-3,-3.7,-4,-3.4,-3.5,-4.7,-2.8,-3.2,-3.8,-4.9,-3.9,-4.1,-5.1,-6,-3.8,-5.8,-8.3,-8.7,-4.7,-6.8,-9.2,-10.1,-6.5,-6.4,-7.8,-9.4,-7.6,-7.7,-9.2,-10.9
11402,---,---,---,---,---,---,0,0,0,0,0,0,1,0,1,1,0,1,0,0,0,0,-1.1,-1.5,-2.9,-4.3,-2.4,-2,-3.5,-5.3,-3.5,-3,-3.8,-5.8,-4.4,-4.1,-5.5,-7.8,-4.4,-4.6,-6.4,-8.6,-5.5,-5.6,-8.1,-10.3,-5.7,-5.6,-8.1,-9.7,-6.9,-7.4,-9.8,-11.5
11501,---,---,---,---,---,---,0,0,0,0,0,0,1,0,1,0,0,1,0,0,0,0,-1.4,-2.7,-3,-3.7,-4,-3.4,-3.5,-4.7,-2.8,-3.2,-3.8,-4.9,-3.9,-4.1,-5.1,-6,-3.8,-5.8,-8.3,-8.7,-4.7,-6.8,-9.2,-10.1,-6.5,-6.4,-7.8,-9.4,-7.6,-7.7,-9.2,-10.9
11502,---,---,---,---,---,---,0,0,0,0,0,0,1,0,1,1,0,1,0,0,0,0,-1.1,-1.5,-2.9,-4.3,-2.4,-2,-3.5,-5.3,-3.5,-3,-3.8,-5.8,-4.4,-4.1,-5.5,-7.8,-4.4,-4.6,-6.4,-8.6,-5.5,-5.6,-8.1,-10.3,-5.7,-5.6,-8.1,-9.7,-6.9,-7.4,-9.8,-11.5
15101,---,---,---,---,---,---,0,0,0,0,0,0,1,0,1,0,1,1,0,0,0,0,-2.4,-1,-0.9,-1.4,---,---,---,---,-2.2,-2.8,-4.1,-4.6,-2.3,-3.8,-5.3,-5.7,-3.9,-4.1,-5,-5.9,-4.4,-4.8,-6.2,-7,---,---,---,---,---,---,---,---
15102,---,---,---,---,---,---,0,0,0,0,0,0,1,0,1,0,1,1,0,0,0,0,-0.7,-0.7,-0.9,-2.2,---,---,---,---,-2.6,-3.7,-4.1,-4.4,-3.7,-5.2,-6.3,-7.1,-3.2,-4.7,-5.1,-5.8,-4.4,-6.2,-7.1,-8.2,---,---,---,---,---,---,---,---
15301,---,---,---,---,---,---,0,0,0,0,0,0,1,0,1,0,1,1,0,0,0,0,-2.4,-1,-0.9,-1.4,---,---,---,---,-2.2,-2.8,-4.1,-4.6,-2.3,-3.8,-5.3,-5.7,-3.9,-4.1,-5,-5.9,-4.4,-4.8,-6.2,-7,---,---,---,---,---,---,---,---
15302,---,---,---,---,---,---,0,0,0,0,0,0,1,0,1,0,1,1,0,0,0,0,-0.7,-0.7,-0.9,-2.2,---,---,---,---,-2.6,-3.7,-4.1,-4.4,-3.7,-5.2,-6.3,-7.1,-3.2,-4.7,-5.1,-5.8,-4.4,-6.2,-7.1,-8.2,---,---,---,---,---,---,---,---
15401,---,---,---,---,---,---,0,0,0,0,0,0,1,0,1,0,1,1,0,0,0,0,-2.4,-1,-0.9,-1.4,---,---,---,---,-2.2,-2.8,-4.1,-4.6,-2.3,-3.8,-5.3,-5.7,-3.9,-4.1,-5,-5.9,-4.4,-4.8,-6.2,-7,---,---,---,---,---,---,---,---
15402,---,---,---,---,---,---,0,0,0,0,0,0,1,0,1,0,1,1,0,0,0,0,-0.7,-0.7,-0.9,-2.2,---,---,---,---,-2.6,-3.7,-4.1,-4.4,-3.7,-5.2,-6.3,-7.1,-3.2,-4.7,-5.1,-5.8,-4.4,-6.2,-7.1,-8.2,---,---,---,---,---,---,---,---
15501,---,---,---,---,---,---,0,0,0,0,0,0,1,0,1,0,1,1,0,0,0,0,-2.4,-1,-0.9,-1.4,---,---,---,---,-2.2,-2.8,-4.1,-4.6,-2.3,-3.8,-5.3,-5.7,-3.9,-4.1,-5,-5.9,-4.4,-4.8,-6.2,-7,---,---,---,---,---,---,---,---
15502,---,---,---,---,---,---,0,0,0,0,0,0,1,0,1,0,1,1,0,0,0,0,-0.7,-0.7,-0.9,-2.2,---,---,---,---,-2.6,-3.7,-4.1,-4.4,-3.7,-5.2,-6.3,-7.1,-3.2,-4.7,-5.1,-5.8,-4.4,-6.2,-7.1,-8.2,---,---,---,---,---,---,---,---
21111,-0.8,-0.3,-2.3,-1.6,-3.2,-2.1,0,0,-1.5,-1.5,-2.3,-2.3,1,0,1,0,0,1,0,0,0,0,-1.4,-2.7,-3,-3.7,-4,-3.4,-3.5,-4.7,-2.8,-3.2,-3.8,-4.9,-3.9,-4.1,-5.1,-6,-3.8,-5.8,-8.3,-8.7,-4.7,-6.8,-9.2,-10.1,-6.5,-6.4,-7.8,-9.4,-7.6,-7.7,-9.2,-10.9
21112,-0.8,-0.3,-2.3,-1.6,-3.2,-2.1,0,0,-1.5,-1.5,-2.3,-2.3,1,0,1,1,0,1,0,0,0,0,-1.1,-1.5,-2.9,-4.3,-2.4,-2,-3.5,-5.3,-3.5,-3,-3.8,-5.8,-4.4,-4.1,-5.5,-7.8,-4.4,-4.6,-6.4,-8.6,-5.5,-5.6,-8.1,-10.3,-5.7,-5.6,-8.1,-9.7,-6.9,-7.4,-9.8,-11.5
21121,-0.8,-0.3,-2.3,-1.6,-3.2,-2.1,0,0,-1.5,-1.5,-2.3,-2.3,1,0,1,0,0,1,0,0,0,0,-1.4,-2.7,-3,-3.7,-4,-3.4,-3.5,-4.7,-2.8,-3.2,-3.8,-4.9,-3.9,-4.1,-5.1,-6,-3.8,-5.8,-8.3,-8.7,-4.7,-6.8,-9.2,-10.1,-6.5,-6.4,-7.8,-9.4,-7.6,-7.7,-9.2,-10.9
21122,-0.8,-0.3,-2.3,-1.6,-3.2,-2.1,0,0,-1.5,-1.5,-2.3,-2.3,1,0,1,1,0,1,0,0,0,0,-1.1,-1.5,-2.9,-4.3,-2.4,-2,-3.5,-5.3,-3.5,-3,-3.8,-5.8,-4.4,-4.1,-5.5,-7.8,-4.4,-4.6,-6.4,-8.6,-5.5,-5.6,-8.1,-10.3,-5.7,-5.6,-8.1,-9.7,-6.9,-7.4,-9.8,-11.5
21211,-0.8,-0.3,-2.3,-1.6,-3.2,-2.1,0,0,-1.5,-1.5,-2.3,-2.3,1,0,1,0,0,1,0,0,0,0,-1.4,-2.7,-3,-3.7,-4,-3.4,-3.5,-4.7,-2.8,-3.2,-3.8,-4.9,-3.9,-4.1,-5.1,-6,-3.8,-5.8,-8.3,-8.7,-4.7,-6.8,-9.2,-10.1,-6.5,-6.4,-7.8,-9.4,-7.6,-7.7,-9.2,-10.9
21221,-0.8,-0.3,-2.3,-1.6,-3.2,-2.1,0,0,-1.5,-1.5,-2.3,-2.3,1,0,1,0,0,1,0,0,0,0,-1.4,-2.7,-3,-3.7,-4,-3.4,-3.5,-4.7,-2.8,-3.2,-3.8,-4.9,-3.9,-4.1,-5.1,-6,-3.8,-5.8,-8.3,-8.7,-4.7,-6.8,-9.2,-10.1,-6.5,-6.4,-7.8,-9.4,-7.6,-7.7,-9.2,-10.9
21311,-0.8,-0.3,-2.3,-1.6,-3.2,-2.1,0,0,-1.5,-1.5,-2.3,-2.3,1,0,1,0,0,1,0,0,0,0,-1.4,-2.7,-3,-3.7,-4,-3.4,-3.5,-4.7,-2.8,-3.2,-3.8,-4.9,-3.9,-4.1,-5.1,-6,-3.8,-5.8,-8.3,-8.7,-4.7,-6.8,-9.2,-10.1,-6.5,-6.4,-7.8,-9.4,-7.6,-7.7,-9.2,-10.9
21312,-0.8,-0.3,-2.3,-1.6,-3.2,-2.1,0,0,-1.5,-1.5,-2.3,-2.3,1,0,1,1,0,1,0,0,0,0,-1.1,-1.5,-2.9,-4.3,-2.4,-2,-3.5,-5.3,-3.5,-3,-3.8,-5.8,-4.4,-4.1,-5.5,-7.8,-4.4,-4.6,-6.4,-8.6,-5.5,-5.6,-8.1,-10.3,-5.7,-5.6,-8.1,-9.7,-6.9,-7.4,-9.8,-11.5
21321,-0.8,-0.3,-2.3,-1.6,-3.2,-2.1,0,0,-1.5,-1.5,-2.3,-2.3,1,0,1,0,0,1,0,0,0,0,-1.4,-2.7,-3,-3.7,-4,-3.4,-3.5,-4.7,-2.8,-3.2,-3.8,-4.9,-3.9,-4.1,-5.1,-6,-3.8,-5.8,-8.3,-8.7,-4.7,-6.8,-9.2,-10.1,-6.5,-6.4,-7.8,-9.4,-7.6,-7.7,-9.2,-10.9
21322,-0.8,-0.3,-2.3,-1.6,-3.2,-2.1,0,0,-1.5,-1.5,-2.3,-2.3,1,0,1,1,0,1,0,0,0,0,-1.1,-1.5,-2.9,-4.3,-2.4,-2,-3.5,-5.3,-3.5,-3,-3.8,-5.8,-4.4,-4.1,-5.5,-7.8,-4.4,-4.6,-6.4,-8.6,-5.5,-5.6,-8.1,-10.3,-5.7,-5.6,-8.1,-9.7,-6.9,-7.4,-9.8,-11.5
21411,-0.8,-0.3,-2.3,-1.6,-3.2,-2.1,0,0,-1.5,-1.5,-2.3,-2.3,1,0,1,0,0,1,0,0,0,0,-1.4,-2.7,-3,-3.7,-4,-3.4,-3.5,-4.7,-2.8,-3.2,-3.8,-4.9,-3.9,-4.1,-5.1,-6,-3.8,-5.8,-8.3,-8.7,-4.7,-6.8,-9.2,-10.1,-6.5,-6.4,-7.8,-9.4,-7.6,-7.7,-9.2,-10.9
21412,-0.8,-0.3,-2.3,-1.6,-3.2,-2.1,0,0,-1.5,-1.5,-2.3,-2.3,1,0,1,1,0,1,0,0,0,0,-1.1,-1.5,-2.9,-4.3,-2.4,-2,-3.5,-5.3,-3.5,-3,-3.8,-5.8,-4.4,-4.1,-5.5,-7.8,-4.4,-4.6,-6.4,-8.6,-5.5,-5.6,-8.1,-10.3,-5.7,-5.6,-8.1,-9.7,-6.9,-7.4,-9.8,-11.5
21421,-0.8,-0.3,-2.3,-1.6,-3.2,-2.1,0,0,-1.5,-1.5,-2.3,-2.3,1,0,1,0,0,1,0,0,0,0,-1.4,-2.7,-3,-3.7,-4,-3.4,-3.5,-4.7,-2.8,-3.2,-3.8,-4.9,-3.9,-4.1,-5.1,-6,-3.8,-5.8,-8.3,-8.7,-4.7,-6.8,-9.2,-10.1,-6.5,-6.4,-7.8,-9.4,-7.6,-7.7,-9.2,-10.9
21422,-0.8,-0.3,-2.3,-1.6,-3.2,-2.1,0,0,-1.5,-1.5,-2.3,-2.3,1,0,1,1,0,1,0,0,0,0,-1.1,-1.5,-2.9,-4.3,-2.4,-2,-3.5,-5.3,-3.5,-3,-3.8,-5.8,-4.4,-4.1,-5.5,-7.8,-4.4,-4.6,-6.4,-8.6,-5.5,-5.6,-8.1,-10.3,-5.7,-5.6,-8.1,-9.7,-6.9,-7.4,-9.8,-11.5
21511,-0.8,-0.3,-2.3,-1.6,-3.2,-2.1,0,0,-1.5,-1.5,-2.3,-2.3,1,0,1,0,0,1,0,0,0,0,-1.4,-2.7,-3,-3.7,-4,-3.4,-3.5,-4.7,-2.8,-3.2,-3.8,-4.9,-3.9,-4.1,-5.1,-6,-3.8,-5.8,-8.3,-8.7,-4.7,-6.8,-9.2,-10.1,-6.5,-6.4,-7.8,-9.4,-7.6,-7.7,-9.2,-10.9
21512,-0.8,-0.3,-2.3,-1.6,-3.2,-2.1,0,0,-1.5,-1.5,-2.3,-2.3,1,0,1,1,0,1,0,0,0,0,-1.1,-1.5,-2.9,-4.3,-2.4,-2,-3.5,-5.3,-3.5,-3,-3.8,-5.8,-4.4,-4.1,-5.5,-7.8,-4.4,-4.6,-6.4,-8.6,-5.5,-5.6,-8.1,-10.3,-5.7,-5.6,-8.1,-9.7,-6.9,-7.4,-9.8,-11.5
21521,-0.8,-0.3,-2.3,-1.6,-3.2,-2.1,0,0,-1.5,-1.5,-2.3,-2.3,1,0,1,0,0,1,0,0,0,0,-1.4,-2.7,-3,-3.7,-4,-3.4,-3.5,-4.7,-2.8,-3.2,-3.8,-4.9,-3.9,-4.1,-5.1,-6,-3.8,-5.8,-8.3,-8.7,-4.7,-6.8,-9.2,-10.1,-6.5,-6.4,-7.8,-9.4,-7.6,-7.7,-9.2,-10.9
21522,-0.8,-0.3,-2.3,-1.6,-3.2,-2.1,0,0,-1.5,-1.5,-2.3,-2.3,1,0,1,1,0,1,0,0,0,0,-1.1,-1.5,-2.9,-4.3,-2.4,-2,-3.5,-5.3,-3.5,-3,-3.8,-5.8,-4.4,-4.1,-5.5,-7.8,-4.4,-4.6,-6.4,-8.6,-5.5,-5.6,-8.1,-10.3,-5.7,-5.6,-8.1,-9.7,-6.9,-7.4,-9.8,-11.5
22101,---,---,---,---,---,---,---,---,---,---,---,---,---,---,---,---,---,---,---,---,---,---,---,---,---,---,---,---,---,---,---,---,---,---,---,---,---,---,---,---,---,---,---,---,---,---,---,---,---,---,---,---,---,---
22201,---,---,---,---,---,---,---,---,---,---,---,---,---,---,---,---,---,---,---,---,---,---,---,---,---,---,---,---,---,---,---,---,---,---,---,---,---,---,---,---,---,---,---,---,---,---,---,---,---,---,---,---,---,---
22301,---,---,---,---,---,---,---,---,---,---,---,---,---,---,---,---,---,---,---,---,---,---,---,---,---,---,---,---,---,---,---,---,---,---,---,---,---,---,---,---,---,---,---,---,---,---,---,---,---,---,---,---,---,---
22401,---,---,---,---,---,---,---,---,---,---,---,---,---,---,---,---,---,---,---,---,---,---,---,---,---,---,---,---,---,---,---,---,---,---,---,---,---,---,---,---,---,---,---,---,---,---,---,---,---,---,---,---,---,---
22501,---,---,---,---,---,---,---,---,---,---,---,---,---,---,---,---,---,---,---,---,---,---,---,---,---,---,---,---,---,---,---,---,---,---,---,---,---,---,---,---,---,---,---,---,---,---,---,---,---,---,---,---,---,---
23101,0,0,0,0,0,0,0,0,0,0,0,0,1,0,1,0,0,1,0,0,0,0,-3.7,-1.3,-2.1,-2.7,---,---,---,---,-4,-3.4,-3.8,-3.1,-4,-4.8,-5,-3.9,-5.5,-5.5,-5.8,-6.5,-6.3,-6,-6.6,-7.3,---,---,---,---,---,---,---,---
23102,0,0,0,0,0,0,0,0,0,0,0,0,1,0,1,0,0,1,0,0,0,0,-1,-0.5,-0.3,-1.5,---,---,---,---,-2.6,-2.5,-3.2,-3.5,-3.4,-3.5,-4.5,-5.1,-3.2,-3.6,-4.6,-6,-4.1,-4.6,-6.1,-7.4,---,---,---,---,---,---,---,---
23201,0,0,0,0,0,0,0,0,0,0,0,0,1,0,1,0,0,1,0,0,0,0,-3.7,-1.3,-2.1,-2.7,---,---,---,---,-4,-3.4,-3.8,-3.1,-4,-4.8,-5,-3.9,-5.5,-5.5,-5.8,-6.5,-6.3,-6,-6.6,-7.3,---,---,---,---,---,---,---,---
23301,0,0,0,0,0,0,0,0,0,0,0,0,1,0,1,0,0,1,0,0,0,0,-3.7,-1.3,-2.1,-2.7,---,---,---,---,-4,-3.4,-3.8,-3.1,-4,-4.8,-5,-3.9,-5.5,-5.5,-5.8,-6.5,-6.3,-6,-6.6,-7.3,---,---,---,---,---,---,---,---
23302,0,0,0,0,0,0,0,0,0,0,0,0,1,0,1,0,0,1,0,0,0,0,-1,-0.5,-0.3,-1.5,---,---,---,---,-2.6,-2.5,-3.2,-3.5,-3.4,-3.5,-4.5,-5.1,-3.2,-3.6,-4.6,-6,-4.1,-4.6,-6.1,-7.4,---,---,---,---,---,---,---,---
23401,0,0,0,0,0,0,0,0,0,0,0,0,1,0,1,0,0,1,0,0,0,0,-3.7,-1.3,-2.1,-2.7,---,---,---,---,-4,-3.4,-3.8,-3.1,-4,-4.8,-5,-3.9,-5.5,-5.5,-5.8,-6.5,-6.3,-6,-6.6,-7.3,---,---,---,---,---,---,---,---
23402,0,0,0,0,0,0,0,0,0,0,0,0,1,0,1,0,0,1,0,0,0,0,-1,-0.5,-0.3,-1.5,---,---,---,---,-2.6,-2.5,-3.2,-3.5,-3.4,-3.5,-4.5,-5.1,-3.2,-3.6,-4.6,-6,-4.1,-4.6,-6.1,-7.4,---,---,---,---,---,---,---,---
23501,0,0,0,0,0,0,0,0,0,0,0,0,1,0,1,0,0,1,0,0,0,0,-3.7,-1.3,-2.1,-2.7,---,---,---,---,-4,-3.4,-3.8,-3.1,-4,-4.8,-5,-3.9,-5.5,-5.5,-5.8,-6.5,-6.3,-6,-6.6,-7.3,---,---,---,---,---,---,---,---
23502,0,0,0,0,0,0,0,0,0,0,0,0,1,0,1,0,0,1,0,0,0,0,-1,-0.5,-0.3,-1.5,---,---,---,---,-2.6,-2.5,-3.2,-3.5,-3.4,-3.5,-4.5,-5.1,-3.2,-3.6,-4.6,-6,-4.1,-4.6,-6.1,-7.4,---,---,---,---,---,---,---,---
25111,-0.6,-0.2,-2.2,-1.5,-3.1,-2,0,0,-1.5,-1.5,-2.3,-2.3,1,0,1,0,1,1,0,0,0,0,-2.4,-1,-0.9,-1.4,---,---,---,---,-2.2,-2.8,-4.1,-4.6,-2.3,-3.8,-5.3,-5.7,-3.9,-4.1,-5,-5.9,-4.4,-4.8,-6.2,-7,---,---,---,---,---,---,---,---
25112,-0.6,-0.2,-2.2,-1.5,-3.1,-2,0,0,-1.5,-1.5,-2.3,-2.3,1,0,1,0,1,1,0,0,0,0,-0.7,-0.7,-0.9,-2.2,---,---,---,---,-2.6,-3.7,-4.1,-4.4,-3.7,-5.2,-6.3,-7.1,-3.2,-4.7,-5.1,-5.8,-4.4,-6.2,-7.1,-8.2,---,---,---,---,---,---,---,---
25121,-0.6,-0.2,-2.2,-1.5,-3.1,-2,0,0,-1.5,-1.5,-2.3,-2.3,1,0,1,0,1,1,0,0,0,0,-2.4,-1,-0.9,-1.4,---,---,---,---,-2.2,-2.8,-4.1,-4.6,-2.3,-3.8,-5.3,-5.7,-3.9,-4.1,-5,-5.9,-4.4,-4.8,-6.2,-7,---,---,---,---,---,---,---,---
25122,-0.6,-0.2,-2.2,-1.5,-3.1,-2,0,0,-1.5,-1.5,-2.3,-2.3,1,0,1,0,1,1,0,0,0,0,-0.7,-0.7,-0.9,-2.2,---,---,---,---,-2.6,-3.7,-4.1,-4.4,-3.7,-5.2,-6.3,-7.1,-3.2,-4.7,-5.1,-5.8,-4.4,-6.2,-7.1,-8.2,---,---,---,---,---,---,---,---
25221,-0.6,-0.2,-2.2,-1.5,-3.1,-2,0,0,-1.5,-1.5,-2.3,-2.3,1,0,1,0,1,1,0,0,0,0,-2.4,-1,-0.9,-1.4,---,---,---,---,-2.2,-2.8,-4.1,-4.6,-2.3,-3.8,-5.3,-5.7,-3.9,-4.1,-5,-5.9,-4.4,-4.8,-6.2,-7,---,---,---,---,---,---,---,---
25311,-0.6,-0.2,-2.2,-1.5,-3.1,-2,0,0,-1.5,-1.5,-2.3,-2.3,1,0,1,0,1,1,0,0,0,0,-2.4,-1,-0.9,-1.4,---,---,---,---,-2.2,-2.8,-4.1,-4.6,-2.3,-3.8,-5.3,-5.7,-3.9,-4.1,-5,-5.9,-4.4,-4.8,-6.2,-7,---,---,---,---,---,---,---,---
25312,-0.6,-0.2,-2.2,-1.5,-3.1,-2,0,0,-1.5,-1.5,-2.3,-2.3,1,0,1,0,1,1,0,0,0,0,-0.7,-0.7,-0.9,-2.2,---,---,---,---,-2.6,-3.7,-4.1,-4.4,-3.7,-5.2,-6.3,-7.1,-3.2,-4.7,-5.1,-5.8,-4.4,-6.2,-7.1,-8.2,---,---,---,---,---,---,---,---
25321,-0.6,-0.2,-2.2,-1.5,-3.1,-2,0,0,-1.5,-1.5,-2.3,-2.3,1,0,1,0,1,1,0,0,0,0,-2.4,-1,-0.9,-1.4,---,---,---,---,-2.2,-2.8,-4.1,-4.6,-2.3,-3.8,-5.3,-5.7,-3.9,-4.1,-5,-5.9,-4.4,-4.8,-6.2,-7,---,---,---,---,---,---,---,---
25322,-0.6,-0.2,-2.2,-1.5,-3.1,-2,0,0,-1.5,-1.5,-2.3,-2.3,1,0,1,0,1,1,0,0,0,0,-0.7,-0.7,-0.9,-2.2,---,---,---,---,-2.6,-3.7,-4.1,-4.4,-3.7,-5.2,-6.3,-7.1,-3.2,-4.7,-5.1,-5.8,-4.4,-6.2,-7.1,-8.2,---,---,---,---,---,---,---,---
25411,-0.6,-0.2,-2.2,-1.5,-3.1,-2,0,0,-1.5,-1.5,-2.3,-2.3,1,0,1,0,1,1,0,0,0,0,-2.4,-1,-0.9,-1.4,---,---,---,---,-2.2,-2.8,-4.1,-4.6,-2.3,-3.8,-5.3,-5.7,-3.9,-4.1,-5,-5.9,-4.4,-4.8,-6.2,-7,---,---,---,---,---,---,---,---
25412,-0.6,-0.2,-2.2,-1.5,-3.1,-2,0,0,-1.5,-1.5,-2.3,-2.3,1,0,1,0,1,1,0,0,0,0,-0.7,-0.7,-0.9,-2.2,---,---,---,---,-2.6,-3.7,-4.1,-4.4,-3.7,-5.2,-6.3,-7.1,-3.2,-4.7,-5.1,-5.8,-4.4,-6.2,-7.1,-8.2,---,---,---,---,---,---,---,---
25421,-0.6,-0.2,-2.2,-1.5,-3.1,-2,0,0,-1.5,-1.5,-2.3,-2.3,1,0,1,0,1,1,0,0,0,0,-2.4,-1,-0.9,-1.4,---,---,---,---,-2.2,-2.8,-4.1,-4.6,-2.3,-3.8,-5.3,-5.7,-3.9,-4.1,-5,-5.9,-4.4,-4.8,-6.2,-7,---,---,---,---,---,---,---,---
25422,-0.6,-0.2,-2.2,-1.5,-3.1,-2,0,0,-1.5,-1.5,-2.3,-2.3,1,0,1,0,1,1,0,0,0,0,-0.7,-0.7,-0.9,-2.2,---,---,---,---,-2.6,-3.7,-4.1,-4.4,-3.7,-5.2,-6.3,-7.1,-3.2,-4.7,-5.1,-5.8,-4.4,-6.2,-7.1,-8.2,---,---,---,---,---,---,---,---
25511,-0.6,-0.2,-2.2,-1.5,-3.1,-2,0,0,-1.5,-1.5,-2.3,-2.3,1,0,1,0,1,1,0,0,0,0,-2.4,-1,-0.9,-1.4,---,---,---,---,-2.2,-2.8,-4.1,-4.6,-2.3,-3.8,-5.3,-5.7,-3.9,-4.1,-5,-5.9,-4.4,-4.8,-6.2,-7,---,---,---,---,---,---,---,---
25512,-0.6,-0.2,-2.2,-1.5,-3.1,-2,0,0,-1.5,-1.5,-2.3,-2.3,1,0,1,0,1,1,0,0,0,0,-0.7,-0.7,-0.9,-2.2,---,---,---,---,-2.6,-3.7,-4.1,-4.4,-3.7,-5.2,-6.3,-7.1,-3.2,-4.7,-5.1,-5.8,-4.4,-6.2,-7.1,-8.2,---,---,---,---,---,---,---,---
25521,-0.6,-0.2,-2.2,-1.5,-3.1,-2,0,0,-1.5,-1.5,-2.3,-2.3,1,0,1,0,1,1,0,0,0,0,-2.4,-1,-0.9,-1.4,---,---,---,---,-2.2,-2.8,-4.1,-4.6,-2.3,-3.8,-5.3,-5.7,-3.9,-4.1,-5,-5.9,-4.4,-4.8,-6.2,-7,---,---,---,---,---,---,---,---
25522,-0.6,-0.2,-2.2,-1.5,-3.1,-2,0,0,-1.5,-1.5,-2.3,-2.3,1,0,1,0,1,1,0,0,0,0,-0.7,-0.7,-0.9,-2.2,---,---,---,---,-2.6,-3.7,-4.1,-4.4,-3.7,-5.2,-6.3,-7.1,-3.2,-4.7,-5.1,-5.8,-4.4,-6.2,-7.1,-8.2,---,---,---,---,---,---,---,---
26601,---,---,---,---,---,---,---,---,---,---,---,---,---,---,---,---,---,---,---,---,---,---,---,---,---,---,---,---,---,---,---,---,---,---,---,---,---,---,---,---,---,---,---,---,---,---,---,---,---,---,---,---,---,---
26602,---,---,---,---,---,---,---,---,---,---,---,---,---,---,---,---,---,---,---,---,---,---,---,---,---,---,---,---,---,---,---,---,---,---,---,---,---,---,---,---,---,---,---,---,---,---,---,---,---,---,---,---,---,---
31101,-0.6,-0.2,-3.6,-2.4,-5.3,-3.5,0,0,-3,-3,-4.5,-4.5,1,0,1,0,0,1,0,0,0,0,-1.4,-2.7,-3,-3.7,-4,-3.4,-3.5,-4.7,-2.8,-3.2,-3.8,-4.9,-3.9,-4.1,-5.1,-6,-3.8,-5.8,-8.3,-8.7,-4.7,-6.8,-9.2,-10.1,-6.5,-6.4,-7.8,-9.4,-7.6,-7.7,-9.2,-10.9
31102,-0.6,-0.2,-3.6,-2.4,-5.3,-3.5,0,0,-3,-3,-4.5,-4.5,1,0,1,1,0,1,0,0,0,0,-1.1,-1.5,-2.9,-4.3,-2.4,-2,-3.5,-5.3,-3.5,-3,-3.8,-5.8,-4.4,-4.1,-5.5,-7.8,-4.4,-4.6,-6.4,-8.6,-5.5,-5.6,-8.1,-10.3,-5.7,-5.6,-8.1,-9.7,-6.9,-7.4,-9.8,-11.5
31201,-0.6,-0.2,-3.6,-2.4,-5.3,-3.5,0,0,-3,-3,-4.5,-4.5,1,0,1,0,0,1,0,0,0,0,-1.4,-2.7,-3,-3.7,-4,-3.4,-3.5,-4.7,-2.8,-3.2,-3.8,-4.9,-3.9,-4.1,-5.1,-6,-3.8,-5.8,-8.3,-8.7,-4.7,-6.8,-9.2,-10.1,-6.5,-6.4,-7.8,-9.4,-7.6,-7.7,-9.2,-10.9
31301,-0.6,-0.2,-3.6,-2.4,-5.3,-3.5,0,0,-3,-3,-4.5,-4.5,1,0,1,0,0,1,0,0,0,0,-1.4,-2.7,-3,-3.7,-4,-3.4,-3.5,-4.7,-2.8,-3.2,-3.8,-4.9,-3.9,-4.1,-5.1,-6,-3.8,-5.8,-8.3,-8.7,-4.7,-6.8,-9.2,-10.1,-6.5,-6.4,-7.8,-9.4,-7.6,-7.7,-9.2,-10.9
31302,-0.6,-0.2,-3.6,-2.4,-5.3,-3.5,0,0,-3,-3,-4.5,-4.5,1,0,1,1,0,1,0,0,0,0,-1.1,-1.5,-2.9,-4.3,-2.4,-2,-3.5,-5.3,-3.5,-3,-3.8,-5.8,-4.4,-4.1,-5.5,-7.8,-4.4,-4.6,-6.4,-8.6,-5.5,-5.6,-8.1,-10.3,-5.7,-5.6,-8.1,-9.7,-6.9,-7.4,-9.8,-11.5
31401,-0.6,-0.2,-3.6,-2.4,-5.3,-3.5,0,0,-3,-3,-4.5,-4.5,1,0,1,0,0,1,0,0,0,0,-1.4,-2.7,-3,-3.7,-4,-3.4,-3.5,-4.7,-2.8,-3.2,-3.8,-4.9,-3.9,-4.1,-5.1,-6,-3.8,-5.8,-8.3,-8.7,-4.7,-6.8,-9.2,-10.1,-6.5,-6.4,-7.8,-9.4,-7.6,-7.7,-9.2,-10.9
31402,-0.6,-0.2,-3.6,-2.4,-5.3,-3.5,0,0,-3,-3,-4.5,-4.5,1,0,1,1,0,1,0,0,0,0,-1.1,-1.5,-2.9,-4.3,-2.4,-2,-3.5,-5.3,-3.5,-3,-3.8,-5.8,-4.4,-4.1,-5.5,-7.8,-4.4,-4.6,-6.4,-8.6,-5.5,-5.6,-8.1,-10.3,-5.7,-5.6,-8.1,-9.7,-6.9,-7.4,-9.8,-11.5
31501,-0.6,-0.2,-3.6,-2.4,-5.3,-3.5,0,0,-3,-3,-4.5,-4.5,1,0,1,0,0,1,0,0,0,0,-1.4,-2.7,-3,-3.7,-4,-3.4,-3.5,-4.7,-2.8,-3.2,-3.8,-4.9,-3.9,-4.1,-5.1,-6,-3.8,-5.8,-8.3,-8.7,-4.7,-6.8,-9.2,-10.1,-6.5,-6.4,-7.8,-9.4,-7.6,-7.7,-9.2,-10.9
31502,-0.6,-0.2,-3.6,-2.4,-5.3,-3.5,0,0,-3,-3,-4.5,-4.5,1,0,1,1,0,1,0,0,0,0,-1.1,-1.5,-2.9,-4.3,-2.4,-2,-3.5,-5.3,-3.5,-3,-3.8,-5.8,-4.4,-4.1,-5.5,-7.8,-4.4,-4.6,-6.4,-8.6,-5.5,-5.6,-8.1,-10.3,-5.7,-5.6,-8.1,-9.7,-6.9,-7.4,-9.8,-11.5
32101,---,---,---,---,---,---,---,---,---,---,---,---,---,---,---,---,---,---,---,---,---,---,---,---,---,---,---,---,---,---,---,---,---,---,---,---,---,---,---,---,---,---,---,---,---,---,---,---,---,---,---,---,---,---
32201,---,---,---,---,---,---,---,---,---,---,---,---,---,---,---,---,---,---,---,---,---,---,---,---,---,---,---,---,---,---,---,---,---,---,---,---,---,---,---,---,---,---,---,---,---,---,---,---,---,---,---,---,---,---
32301,---,---,---,---,---,---,---,---,---,---,---,---,---,---,---,---,---,---,---,---,---,---,---,---,---,---,---,---,---,---,---,---,---,---,---,---,---,---,---,---,---,---,---,---,---,---,---,---,---,---,---,---,---,---
32401,---,---,---,---,---,---,---,---,---,---,---,---,---,---,---,---,---,---,---,---,---,---,---,---,---,---,---,---,---,---,---,---,---,---,---,---,---,---,---,---,---,---,---,---,---,---,---,---,---,---,---,---,---,---
32501,---,---,---,---,---,---,---,---,---,---,---,---,---,---,---,---,---,---,---,---,---,---,---,---,---,---,---,---,---,---,---,---,---,---,---,---,---,---,---,---,---,---,---,---,---,---,---,---,---,---,---,---,---,---
33101,-0.6,-0.2,-2.1,-1.4,-3,-2,0,0,-1.5,-1.5,-2.3,-2.3,1,0,1,0,0,1,0,0,0,0,-3.7,-1.3,-2.1,-2.7,---,---,---,---,-4,-3.4,-3.8,-3.1,-4,-4.8,-5,-3.9,-5.5,-5.5,-5.8,-6.5,-6.3,-6,-6.6,-7.3,---,---,---,---,---,---,---,---
33102,-0.6,-0.2,-2.1,-1.4,-3,-2,0,0,-1.5,-1.5,-2.3,-2.3,1,0,1,0,0,1,0,0,0,0,-1,-0.5,-0.3,-1.5,---,---,---,---,-2.6,-2.5,-3.2,-3.5,-3.4,-3.5,-4.5,-5.1,-3.2,-3.6,-4.6,-6,-4.1,-4.6,-6.1,-7.4,---,---,---,---,---,---,---,---
33201,-0.6,-0.2,-2.1,-1.4,-3,-2,0,0,-1.5,-1.5,-2.3,-2.3,1,0,1,0,0,1,0,0,0,0,-3.7,-1.3,-2.1,-2.7,---,---,---,---,-4,-3.4,-3.8,-3.1,-4,-4.8,-5,-3.9,-5.5,-5.5,-5.8,-6.5,-6.3,-6,-6.6,-7.3,---,---,---,---,---,---,---,---
33301,-0.6,-0.2,-2.1,-1.4,-3,-2,0,0,-1.5,-1.5,-2.3,-2.3,1,0,1,0,0,1,0,0,0,0,-3.7,-1.3,-2.1,-2.7,---,---,---,---,-4,-3.4,-3.8,-3.1,-4,-4.8,-5,-3.9,-5.5,-5.5,-5.8,-6.5,-6.3,-6,-6.6,-7.3,---,---,---,---,---,---,---,---
33302,-0.6,-0.2,-2.1,-1.4,-3,-2,0,0,-1.5,-1.5,-2.3,-2.3,1,0,1,0,0,1,0,0,0,0,-1,-0.5,-0.3,-1.5,---,---,---,---,-2.6,-2.5,-3.2,-3.5,-3.4,-3.5,-4.5,-5.1,-3.2,-3.6,-4.6,-6,-4.1,-4.6,-6.1,-7.4,---,---,---,---,---,---,---,---
33401,-0.6,-0.2,-2.1,-1.4,-3,-2,0,0,-1.5,-1.5,-2.3,-2.3,1,0,1,0,0,1,0,0,0,0,-3.7,-1.3,-2.1,-2.7,---,---,---,---,-4,-3.4,-3.8,-3.1,-4,-4.8,-5,-3.9,-5.5,-5.5,-5.8,-6.5,-6.3,-6,-6.6,-7.3,---,---,---,---,---,---,---,---
33402,-0.6,-0.2,-2.1,-1.4,-3,-2,0,0,-1.5,-1.5,-2.3,-2.3,1,0,1,0,0,1,0,0,0,0,-1,-0.5,-0.3,-1.5,---,---,---,---,-2.6,-2.5,-3.2,-3.5,-3.4,-3.5,-4.5,-5.1,-3.2,-3.6,-4.6,-6,-4.1,-4.6,-6.1,-7.4,---,---,---,---,---,---,---,---
33501,-0.6,-0.2,-2.1,-1.4,-3,-2,0,0,-1.5,-1.5,-2.3,-2.3,1,0,1,0,0,1,0,0,0,0,-3.7,-1.3,-2.1,-2.7,---,---,---,---,-4,-3.4,-3.8,-3.1,-4,-4.8,-5,-3.9,-5.5,-5.5,-5.8,-6.5,-6.3,-6,-6.6,-7.3,---,---,---,---,---,---,---,---
33502,-0.6,-0.2,-2.1,-1.4,-3,-2,0,0,-1.5,-1.5,-2.3,-2.3,1,0,1,0,0,1,0,0,0,0,-1,-0.5,-0.3,-1.5,---,---,---,---,-2.6,-2.5,-3.2,-3.5,-3.4,-3.5,-4.5,-5.1,-3.2,-3.6,-4.6,-6,-4.1,-4.6,-6.1,-7.4,---,---,---,---,---,---,---,---
35101,-0.6,-0.2,-3.6,-2.4,-5.2,-3.5,0,0,-3,-3,-4.5,-4.5,1,0,1,0,1,1,0,0,0,0,-2.4,-1,-0.9,-1.4,---,---,---,---,-2.2,-2.8,-4.1,-4.6,-2.3,-3.8,-5.3,-5.7,-3.9,-4.1,-5,-5.9,-4.4,-4.8,-6.2,-7,---,---,---,---,---,---,---,---
35102,-0.6,-0.2,-3.6,-2.4,-5.2,-3.5,0,0,-3,-3,-4.5,-4.5,1,0,1,0,1,1,0,0,0,0,-0.7,-0.7,-0.9,-2.2,---,---,---,---,-2.6,-3.7,-4.1,-4.4,-3.7,-5.2,-6.3,-7.1,-3.2,-4.7,-5.1,-5.8,-4.4,-6.2,-7.1,-8.2,---,---,---,---,---,---,---,---
35201,-0.6,-0.2,-3.6,-2.4,-5.2,-3.5,0,0,-3,-3,-4.5,-4.5,1,0,1,0,1,1,0,0,0,0,-2.4,-1,-0.9,-1.4,---,---,---,---,-2.2,-2.8,-4.1,-4.6,-2.3,-3.8,-5.3,-5.7,-3.9,-4.1,-5,-5.9,-4.4,-4.8,-6.2,-7,---,---,---,---,---,---,---,---
35301,-0.6,-0.2,-3.6,-2.4,-5.2,-3.5,0,0,-3,-3,-4.5,-4.5,1,0,1,0,1,1,0,0,0,0,-2.4,-1,-0.9,-1.4,---,---,---,---,-2.2,-2.8,-4.1,-4.6,-2.3,-3.8,-5.3,-5.7,-3.9,-4.1,-5,-5.9,-4.4,-4.8,-6.2,-7,---,---,---,---,---,---,---,---
35302,-0.6,-0.2,-3.6,-2.4,-5.2,-3.5,0,0,-3,-3,-4.5,-4.5,1,0,1,0,1,1,0,0,0,0,-0.7,-0.7,-0.9,-2.2,---,---,---,---,-2.6,-3.7,-4.1,-4.4,-3.7,-5.2,-6.3,-7.1,-3.2,-4.7,-5.1,-5.8,-4.4,-6.2,-7.1,-8.2,---,---,---,---,---,---,---,---
35401,-0.6,-0.2,-3.6,-2.4,-5.2,-3.5,0,0,-3,-3,-4.5,-4.5,1,0,1,0,1,1,0,0,0,0,-2.4,-1,-0.9,-1.4,---,---,---,---,-2.2,-2.8,-4.1,-4.6,-2.3,-3.8,-5.3,-5.7,-3.9,-4.1,-5,-5.9,-4.4,-4.8,-6.2,-7,---,---,---,---,---,---,---,---
35402,-0.6,-0.2,-3.6,-2.4,-5.2,-3.5,0,0,-3,-3,-4.5,-4.5,1,0,1,0,1,1,0,0,0,0,-0.7,-0.7,-0.9,-2.2,---,---,---,---,-2.6,-3.7,-4.1,-4.4,-3.7,-5.2,-6.3,-7.1,-3.2,-4.7,-5.1,-5.8,-4.4,-6.2,-7.1,-8.2,---,---,---,---,---,---,---,---
35501,-0.6,-0.2,-3.6,-2.4,-5.2,-3.5,0,0,-3,-3,-4.5,-4.5,1,0,1,0,1,1,0,0,0,0,-2.4,-1,-0.9,-1.4,---,---,---,---,-2.2,-2.8,-4.1,-4.6,-2.3,-3.8,-5.3,-5.7,-3.9,-4.1,-5,-5.9,-4.4,-4.8,-6.2,-7,---,---,---,---,---,---,---,---
35502,-0.6,-0.2,-3.6,-2.4,-5.2,-3.5,0,0,-3,-3,-4.5,-4.5,1,0,1,0,1,1,0,0,0,0,-0.7,-0.7,-0.9,-2.2,---,---,---,---,-2.6,-3.7,-4.1,-4.4,-3.7,-5.2,-6.3,-7.1,-3.2,-4.7,-5.1,-5.8,-4.4,-6.2,-7.1,-8.2,---,---,---,---,---,---,---,---
41101,---,---,---,---,---,---,---,---,---,---,---,---,---,---,---,---,---,---,---,---,---,---,---,---,---,---,---,---,---,---,---,---,---,---,---,---,---,---,---,---,---,---,---,---,---,---,---,---,---,---,---,---,---,---
41102,---,---,---,---,---,---,---,---,---,---,---,---,---,---,---,---,---,---,---,---,---,---,---,---,---,---,---,---,---,---,---,---,---,---,---,---,---,---,---,---,---,---,---,---,---,---,---,---,---,---,---,---,---,---
41201,---,---,---,---,---,---,---,---,---,---,---,---,---,---,---,---,---,---,---,---,---,---,---,---,---,---,---,---,---,---,---,---,---,---,---,---,---,---,---,---,---,---,---,---,---,---,---,---,---,---,---,---,---,---
41301,---,---,---,---,---,---,---,---,---,---,---,---,---,---,---,---,---,---,---,---,---,---,---,---,---,---,---,---,---,---,---,---,---,---,---,---,---,---,---,---,---,---,---,---,---,---,---,---,---,---,---,---,---,---
41302,---,---,---,---,---,---,---,---,---,---,---,---,---,---,---,---,---,---,---,---,---,---,---,---,---,---,---,---,---,---,---,---,---,---,---,---,---,---,---,---,---,---,---,---,---,---,---,---,---,---,---,---,---,---
41401,---,---,---,---,---,---,---,---,---,---,---,---,---,---,---,---,---,---,---,---,---,---,---,---,---,---,---,---,---,---,---,---,---,---,---,---,---,---,---,---,---,---,---,---,---,---,---,---,---,---,---,---,---,---
41402,---,---,---,---,---,---,---,---,---,---,---,---,---,---,---,---,---,---,---,---,---,---,---,---,---,---,---,---,---,---,---,---,---,---,---,---,---,---,---,---,---,---,---,---,---,---,---,---,---,---,---,---,---,---
41501,---,---,---,---,---,---,---,---,---,---,---,---,---,---,---,---,---,---,---,---,---,---,---,---,---,---,---,---,---,---,---,---,---,---,---,---,---,---,---,---,---,---,---,---,---,---,---,---,---,---,---,---,---,---
41502,---,---,---,---,---,---,---,---,---,---,---,---,---,---,---,---,---,---,---,---,---,---,---,---,---,---,---,---,---,---,---,---,---,---,---,---,---,---,---,---,---,---,---,---,---,---,---,---,---,---,---,---,---,---
43101,---,---,---,---,---,---,---,---,---,---,---,---,---,---,---,---,---,---,---,---,---,---,---,---,---,---,---,---,---,---,---,---,---,---,---,---,---,---,---,---,---,---,---,---,---,---,---,---,---,---,---,---,---,---
43102,---,---,---,---,---,---,---,---,---,---,---,---,---,---,---,---,---,---,---,---,---,---,---,---,---,---,---,---,---,---,---,---,---,---,---,---,---,---,---,---,---,---,---,---,---,---,---,---,---,---,---,---,---,---
43201,---,---,---,---,---,---,---,---,---,---,---,---,---,---,---,---,---,---,---,---,---,---,---,---,---,---,---,---,---,---,---,---,---,---,---,---,---,---,---,---,---,---,---,---,---,---,---,---,---,---,---,---,---,---
43301,---,---,---,---,---,---,---,---,---,---,---,---,---,---,---,---,---,---,---,---,---,---,---,---,---,---,---,---,---,---,---,---,---,---,---,---,---,---,---,---,---,---,---,---,---,---,---,---,---,---,---,---,---,---
43302,---,---,---,---,---,---,---,---,---,---,---,---,---,---,---,---,---,---,---,---,---,---,---,---,---,---,---,---,---,---,---,---,---,---,---,---,---,---,---,---,---,---,---,---,---,---,---,---,---,---,---,---,---,---
43401,---,---,---,---,---,---,---,---,---,---,---,---,---,---,---,---,---,---,---,---,---,---,---,---,---,---,---,---,---,---,---,---,---,---,---,---,---,---,---,---,---,---,---,---,---,---,---,---,---,---,---,---,---,---
43402,---,---,---,---,---,---,---,---,---,---,---,---,---,---,---,---,---,---,---,---,---,---,---,---,---,---,---,---,---,---,---,---,---,---,---,---,---,---,---,---,---,---,---,---,---,---,---,---,---,---,---,---,---,---
43501,---,---,---,---,---,---,---,---,---,---,---,---,---,---,---,---,---,---,---,---,---,---,---,---,---,---,---,---,---,---,---,---,---,---,---,---,---,---,---,---,---,---,---,---,---,---,---,---,---,---,---,---,---,---
43502,---,---,---,---,---,---,---,---,---,---,---,---,---,---,---,---,---,---,---,---,---,---,---,---,---,---,---,---,---,---,---,---,---,---,---,---,---,---,---,---,---,---,---,---,---,---,---,---,---,---,---,---,---,---
44101,---,---,---,---,---,---,---,---,---,---,---,---,---,---,---,---,---,---,---,---,---,---,---,---,---,---,---,---,---,---,---,---,---,---,---,---,---,---,---,---,---,---,---,---,---,---,---,---,---,---,---,---,---,---
44201,---,---,---,---,---,---,---,---,---,---,---,---,---,---,---,---,---,---,---,---,---,---,---,---,---,---,---,---,---,---,---,---,---,---,---,---,---,---,---,---,---,---,---,---,---,---,---,---,---,---,---,---,---,---
44301,---,---,---,---,---,---,---,---,---,---,---,---,---,---,---,---,---,---,---,---,---,---,---,---,---,---,---,---,---,---,---,---,---,---,---,---,---,---,---,---,---,---,---,---,---,---,---,---,---,---,---,---,---,---
44401,---,---,---,---,---,---,---,---,---,---,---,---,---,---,---,---,---,---,---,---,---,---,---,---,---,---,---,---,---,---,---,---,---,---,---,---,---,---,---,---,---,---,---,---,---,---,---,---,---,---,---,---,---,---
44501,---,---,---,---,---,---,---,---,---,---,---,---,---,---,---,---,---,---,---,---,---,---,---,---,---,---,---,---,---,---,---,---,---,---,---,---,---,---,---,---,---,---,---,---,---,---,---,---,---,---,---,---,---,---
