Number_of_axles,Trailer_type,Bodywork_code,TPMLM_axle_assembly,Volume_orientation,Vehicle_group,Vehicle_group_acc,Active,Active_Final,Generic_code,Generic_vehicle_group,generic_mass_body,generic_cargo_volume,Mission_long_haul,Mission_regional_delivery,Mission_urban_delivery,ref_code_lh,ref_code_other,max_gcm,specific_lh_semi_payload_low,specific_lh_semi_payload_rep,specific_other_semi_payload_low,specific_other_semi_payload_rep,towing_lh_axle1,towing_lh_axle2,towing_lh_axle3,semi_lh_axle1,semi_lh_axle2,semi_lh_axle3,towing_other_axle1,towing_other_axle2,towing_other_axle3,semi_other_axle1,semi_other_axle2,semi_other_axle3
1,DA,dry box,= 8 to,No,11101,112,0,1,A1,5-RD,---,---,0.03/0.07,0.27/0.63,0/0,T1,none,28000,1500,11200,1500,7500,25,40,---,35,---,---,30,40,---,30,---,---
1,DA,dry box,= 8 to,Yes,11102,112V,0,1,A1,5-RD,---,---,0.03/0.07,0.27/0.63,0/0,T1,none,28000,1500,11200,1500,7500,25,40,---,35,---,---,30,40,---,30,---,---
1,DA,refrigerated,= 8 to,No,11201,113,0,1,A1,5-RD,---,---,0.03/0.07,0.27/0.63,0/0,T1,none,28000,1500,11200,1500,7500,25,40,---,35,---,---,30,40,---,30,---,---
1,DA,conditioned,= 8 to,No,11301,112,0,1,A1,5-RD,---,---,0.03/0.07,0.27/0.63,0/0,T1,none,28000,1500,11200,1500,7500,25,40,---,35,---,---,30,40,---,30,---,---
1,DA,conditioned,= 8 to,Yes,11302,112V,0,1,A1,5-RD,---,---,0.03/0.07,0.27/0.63,0/0,T1,none,28000,1500,11200,1500,7500,25,40,---,35,---,---,30,40,---,30,---,---
1,DA,curtain-sided,= 8 to,No,11401,111,0,1,A1,5-RD,---,---,0.03/0.07,0.27/0.63,0/0,T1,none,28000,1500,11200,1500,7500,25,40,---,35,---,---,30,40,---,30,---,---
1,DA,curtain-sided,= 8 to,Yes,11402,111V,0,1,A1,5-RD,---,---,0.03/0.07,0.27/0.63,0/0,T1,none,28000,1500,11200,1500,7500,25,40,---,35, --- , ---,30,40,---,30, ---, ---
1,DA,drop-side tarpaulin body,= 8 to,No,11501,111,0,1,A1,5-RD,---,---,0.03/0.07,0.27/0.63,0/0,T1,none,28000,1500,11200,1500,7500,25,40,---,35, --- , ---,30,40,---,30, ---, ---
1,DA,drop-side tarpaulin body,= 8 to,Yes,11502,111V,0,1,A1,5-RD,---,---,0.03/0.07,0.27/0.63,0/0,T1,none,28000,1500,11200,1500,7500,25,40,---,35,---,---,30,40,---,30,---,---
1,DC,dry box,= 8 to,No,15101,612,0,1,R1, 2-RD,1900,45.2,0.03/0.07,0.27/0.63,0/0,T1,none,21990,1200,9200,1200,6100,25,40,---,35,---,---,25,30,---,45,---,---
1,DC,dry box,= 8 to,Yes,15102,612V,0,1,R1, 2-RD,2100,52.4,0.27/0.63,0.03/0.07,0/0,T1,none,21990,1200,9200,1200,6100,25,40,---,35,---,---,25,30,---,45,---,---
1,DC,conditioned,= 8 to,No,15301,612,0,1,R1, 2-RD,1900,45.2,0.03/0.07,0.27/0.63,0/0,T1,none,21990,1200,9300,1200,6200,25,40,---,35,---,---,25,30,---,45,---,---
1,DC,conditioned,= 8 to,Yes,15302,612V,0,1,R1, 2-RD,2100,52.4,0.27/0.63,0.03/0.07,0/0,T1,none,21990,1200,9200,1200,6100,25,40,---,35,---,---,25,30,---,45,---,---
1,DC,curtain-sided,= 8 to,No,15401,611,0,1,R1, 2-RD,1350,45.2,0.03/0.07,0.27/0.63,0/0,T1,none,21990,1200,9200,1200,6100,25,40,---,35,---,---,25,30,---,45,---,---
1,DC,curtain-sided,= 8 to,Yes,15402,611V,0,1,R1, 2-RD,1550,52.8,0.27/0.63,0.03/0.07,0/0,T1,none,21990,1200,9200,1200,6100,25,40,---,35,---,---,25,30,---,45, ---, ---
1,DC,drop-side tarpaulin body,= 8 to,No,15501,611,0,1,R1, 2-RD,1350,45.2,0.03/0.07,0.27/0.63,0/0,T1,none,21990,1200,9200,1200,6100,25,40,---,35,---,---,25,30,---,45,---,---
1,DC,drop-side tarpaulin body,= 8 to,Yes,15502,611V,0,1,R1, 2-RD,1550,52.8,0.27/0.63,0.03/0.07,0/0,T1,none,21990,1200,9200,1200,6100,25,40,---,35,---,---,25,30,---,45,---,---
2,DA,dry box,= 8 to up to < = 18 to,No,21111,123,1,1,A2,5-LH,---,---,0.27/0.63,0.03/0.07,0/0,T1,none,36000,2200,16800,2200,11200,20,30,---,50/2,50/2,---,25,25,---,50/2,50/2,---
2,DA,dry box,= 8 to up to < = 18 to,Yes,21112,123V,1,1,A2,5-LH,---,---,0.27/0.63,0.03/0.07,0/0,T1,none,36000,2200,16800,2200,11200,20,30,---,50/2,50/2,---,25,25,---,50/2,50/2,---
2,DA,dry box,> 18 to,No,21121,124,1,1,A2,5-LH,---,---,0.27/0.63,0.03/0.07,0/0,T1,none,38000,2400,18300,2400,12200,20,30,---,50/2,50/2,---,25,25,---,50/2,50/2,---
2,DA,dry box,> 18 to,Yes,21122,124V,1,1,A2,5-LH,---,---,0.27/0.63,0.03/0.07,0/0,T1,none,38000,2400,18300,2400,12200,20,30,---,50/2,50/2,---,25,25,---,50/2,50/2,---
2,DA,refrigerated,= 8 to up to < = 18 to,No,21211,125,1,1,A2,5-LH,---,---,0.27/0.63,0.03/0.07,0/0,T1,none,36000,2200,16800,2200,11200,20,30,---,50/2,50/2,---,25,25,---,50/2,50/2,---
2,DA,refrigerated,> 18 to,No,21221,126,1,1,A2,5-LH,---,---,0.27/0.63,0.03/0.07,0/0,T1,none,38000,2400,18300,2400,12200,20,30,---,50/2,50/2,---,25,25,---,50/2,50/2,---
2,DA,conditioned,= 8 to up to < = 18 to,No,21311,123,1,1,A2,5-LH,---,---,0.27/0.63,0.03/0.07,0/0,T1,none,36000,2200,16800,2200,11200,20,30,---,50/2,50/2,---,25,25,---,50/2,50/2,---
2,DA,conditioned,= 8 to up to < = 18 to,Yes,21312,123V,1,1,A2,5-LH,---,---,0.27/0.63,0.03/0.07,0/0,T1,none,36000,2200,16800,2200,11200,20,30,---,50/2,50/2,---,25,25,---,50/2,50/2,---
2,DA,conditioned,> 18 to,No,21321,124,1,1,A2,5-LH,---,---,0.27/0.63,0.03/0.07,0/0,T1,none,38000,2400,18300,2400,12200,20,30,---,50/2,50/2,---,25,25,---,50/2,50/2,---
2,DA,conditioned,> 18 to,Yes,21322,124V,1,1,A2,5-LH,---,---,0.27/0.63,0.03/0.07,0/0,T1,none,38000,2400,18300,2400,12200,20,30,---,50/2,50/2,---,25,25,---,50/2,50/2,---
2,DA,curtain-sided,= 8 to up to < = 18 to,No,21411,121,1,1,A2,5-LH,---,---,0.27/0.63,0.03/0.07,0/0,T1,none,36000,2200,16800,2200,11200,20,30,---,50/2,50/2,---,25,25,---,50/2,50/2,---
2,DA,curtain-sided,= 8 to up to < = 18 to,Yes,21412,121V,1,1,A2,5-LH,---,---,0.27/0.63,0.03/0.07,0/0,T1,none,36000,2200,16800,2200,11200,20,30,---,50/2,50/2,---,25,25,---,50/2,50/2,---
2,DA,curtain-sided,> 18 to,No,21421,122,1,1,A2,5-LH,---,---,0.27/0.63,0.03/0.07,0/0,T1,none,38000,2400,18300,2400,12200,20,30,---,50/2,50/2,---,25,25,---,50/2,50/2,---
2,DA,curtain-sided,> 18 to,Yes,21422,122V,1,1,A2,5-LH,---,---,0.27/0.63,0.03/0.07,0/0,T1,none,38000,2400,18300,2400,12200,20,30,---,50/2,50/2,---,25,25,---,50/2,50/2,---
2,DA,drop-side tarpaulin body,= 8 to up to < = 18 to,No,21511,121,1,1,A2,5-LH,---,---,0.27/0.63,0.03/0.07,0/0,T1,none,36000,2200,16800,2200,11200,20,30,---,50/2,50/2,---,25,25,---,50/2,50/2,---
2,DA,drop-side tarpaulin body,= 8 to up to < = 18 to,Yes,21512,121V,1,1,A2,5-LH,---,---,0.27/0.63,0.03/0.07,0/0,T1,none,36000,2200,16800,2200,11200,20,30,---,50/2,50/2,---,25,25,---,50/2,50/2,---
2,DA,drop-side tarpaulin body,> 18 to,No,21521,122,1,1,A2,5-LH,---,---,0.27/0.63,0.03/0.07,0/0,T1,none,38000,2400,18300,2400,12200,20,30,---,50/2,50/2,---,25,25,---,50/2,50/2,---
2,DA,drop-side tarpaulin body,> 18 to,Yes,21522,122V,1,1,A2,5-LH,---,---,0.27/0.63,0.03/0.07,0/0,T1,none,38000,2400,18300,2400,12200,20,30,---,50/2,50/2,---,25,25,---,50/2,50/2,---
2,DA-BDU,dry box,---,No,22101,222,0,0,A3,10-LH,---,---,---,---,---,T1,none,---,---,---,---,---,---,---,---,---,---,---,---,---,---,---,---,---
2,DA-BDU,refrigerated,---,No,22201,223,0,0,A3,10-LH,---,---,---,---,---,T1,none,---,---,---,---,---,---,---,---,---,---,---,---,---,---,---,---,---
2,DA-BDU,conditioned,---,No,22301,222,0,0,A3,10-LH,---,---,---,---,---,T1,none,---,---,---,---,---,---,---,---,---,---,---,---,---,---,---,---,---
2,DA-BDU,curtain-sided,---,No,22401,221,0,0,A3,10-LH,---,---,---,---,---,T1,none,---,---,---,---,---,---,---,---,---,---,---,---,---,---,---,---,---
2,DA-BDU,drop-side tarpaulin body,---,No,22501,221,0,0,A3,10-LH,---,---,---,---,---,T1,none,---,---,---,---,---,---,---,---,---,---,---,---,---,---,---,---,---
2,DB,dry box,---,No,23101,422,0,1,R2,9-LH,2100,49.4,0.27/0.63,0.03/0.07,0/0,T1,none,40000,2600,19300,2600,12900,15,30,15,40/2,40/2,---,15,30,15,40/2,40/2,---
2,DB,dry box,---,Yes,23102,422V,0,1,R2,9-LH,2300,52.6,0.27/0.63,0.03/0.07,0/0,T1,none,40000,2600,19300,2600,12900,15,30,15,40/2,40/2,---,15,30,15,40/2,40/2,---
2,DB,refrigerated,---,No,23201,423,0,1,R2,9-LH,2800,45,0.27/0.63,0.03/0.07,0/0,T1,none,40000,2600,19300,2600,12900,15,30,15,40/2,40/2,---,15,30,15,40/2,40/2,---
2,DB,conditioned,---,No,23301,422,0,1,R2,9-LH,2100,49.4,0.27/0.63,0.03/0.07,0/0,T1,none,40000,2600,19300,2600,12900,15,30,15,40/2,40/2,---,15,30,15,40/2,40/2,---
2,DB,conditioned,---,Yes,23302,422V,0,1,R2,9-LH,2300,52.6,0.27/0.63,0.03/0.07,0/0,T1,none,40000,2600,19300,2600,12900,15,30,15,40/2,40/2,---,15,30,15,40/2,40/2,---
2,DB,curtain-sided,---,No,23401,421,0,1,R2,9-LH,1550,49.4,0.27/0.63,0.03/0.07,0/0,T1,none,40000,2600,19300,2600,12900,15,30,15,40/2,40/2,---,15,30,15,40/2,40/2,---
2,DB,curtain-sided,---,Yes,23402,421V,0,1,R2,9-LH,1750,53.2,0.27/0.63,0.03/0.07,0/0,T1,none,40000,2600,19300,2600,12900,15,30,15,40/2,40/2,---,15,30,15,40/2,40/2,---
2,DB,drop-side tarpaulin body,---,No,23501,421,0,1,R2,9-LH,1550,49.4,0.27/0.63,0.03/0.07,0/0,T1,none,40000,2600,19300,2600,12900,15,30,15,40/2,40/2,---,15,30,15,40/2,40/2,---
2,DB,drop-side tarpaulin body,---,Yes,23502,421V,0,1,R2,9-LH,1750,53.2,0.27/0.63,0.03/0.07,0/0,T1,none,40000,2600,19300,2600,12900,15,30,15,40/2,40/2,---,15,30,15,40/2,40/2,---
2,DC,dry box,= 8 to up to < = 13.5 to,No,25111,623,0,1,R1, 2-RD,1900,45.2,0.03/0.07,0.27/0.63,0/0,T1,none,22490,1300,9500,1300,6300,25,30,---,45/2,45/2,---,25,35,---,40/2,40/2,---
2,DC,dry box,= 8 to up to < = 13.5 to,Yes,25112,623V,0,1,R1, 2-RD,2100,52.4,0.27/0.63,0.03/0.07,0/0,T1,none,22490,1300,9500,1300,6300,25,30,---,45/2,45/2,---,25,35,---,40/2,40/2,---
2,DC,dry box,> 13.5 to,No,25121,624,0,1,R2,9-LH,2200,51.9,0.27/0.63,0.03/0.07,0/0,T1,none,40000,2600,19300,2600,12900,15,30,15,40/2,40/2,---,15,30,15,40/2,40/2,---
2,DC,dry box,> 13.5 to,Yes,25122,624V,0,1,R2,9-LH,2400,55.4,0.27/0.63,0.03/0.07,0/0,T1,none,40000,2600,19300,2600,12900,15,30,15,40/2,40/2,---,15,30,15,40/2,40/2,---
2,DC,refrigerated,> 13.5 to,No,25221,625,0,1,R2,9-LH,2950,47.4,0.27/0.63,0.03/0.07,0/0,T1,none,40000,2600,19300,2600,12900,15,30,15,40/2,40/2,---,15,30,15,40/2,40/2,---
2,DC,conditioned,= 8 to up to < = 13.5 to,No,25311,623,0,1,R1, 2-RD,1900,45.2,0.03/0.07,0.27/0.63,0/0,T1,none,22490,1300,9500,1300,6300,25,30,---,45/2,45/2,---,25,35,---,40/2,40/2,---
2,DC,conditioned,= 8 to up to < = 13.5 to,Yes,25312,623V,0,1,R1, 2-RD,2100,52.4,0.27/0.63,0.03/0.07,0/0,T1,none,22490,1300,9500,1300,6300,25,30,---,45/2,45/2,---,25,35,---,40/2,40/2,---
2,DC,conditioned,> 13.5 to,No,25321,624,0,1,R2,9-LH,2200,51.9,0.27/0.63,0.03/0.07,0/0,T1,none,40000,2600,19300,2600,12900,15,30,15,40/2,40/2,---,15,30,15,40/2,40/2,---
2,DC,conditioned,> 13.5 to,Yes,25322,624V,0,1,R2,9-LH,2400,55.4,0.27/0.63,0.03/0.07,0/0,T1,none,40000,2600,19300,2600,12900,15,30,15,40/2,40/2,---,15,30,15,40/2,40/2,---
2,DC,curtain-sided,= 8 to up to < = 13.5 to,No,25411,621,0,1,R1, 2-RD,1350,45.2,0.03/0.07,0.27/0.63,0/0,T1,none,22490,1300,9500,1300,6300,25,30,---,45/2,45/2,---,25,35,---,40/2,40/2,---
2,DC,curtain-sided,= 8 to up to < = 13.5 to,Yes,25412,621V,0,1,R1, 2-RD,1550,52.8,0.27/0.63,0.03/0.07,0/0,T1,none,22490,1300,9500,1300,6300,25,30,---,45/2,45/2,---,25,35,---,40/2,40/2, ---
2,DC,curtain-sided,> 13.5 to,No,25421,622,0,1,R2,9-LH,1600,51.9,0.27/0.63,0.03/0.07,0/0,T1,none,40000,2600,19300,2600,12900,15,30,15,40/2,40/2,---,15,30,15,40/2,40/2,---
2,DC,curtain-sided,> 13.5 to,Yes,25422,622V,0,1,R2,9-LH,1850,56,0.27/0.63,0.03/0.07,0/0,T1,none,40000,2600,19300,2600,12900,15,30,15,40/2,40/2,---,15,30,15,40/2,40/2,---
2,DC,drop-side tarpaulin body,= 8 to up to < = 13.5 to,No,25511,621,0,1,R1, 2-RD,1350,45.2,0.03/0.07,0.27/0.63,0/0,T1,none,22490,1300,9500,1300,6300,25,30,---,45/2,45/2,---,25,35,---,40/2,40/2,---
2,DC,drop-side tarpaulin body,= 8 to up to < = 13.5 to,Yes,25512,621V,0,1,R1, 2-RD,1550,52.8,0.27/0.63,0.03/0.07,0/0,T1,none,22490,1300,9500,1300,6300,25,30,---,45/2,45/2,---,25,35,---,40/2,40/2,---
2,DC,drop-side tarpaulin body,> 13.5 to,No,25521,622,0,1,R2,9-LH,1600,51.9,0.27/0.63,0.03/0.07,0/0,T1,none,40000,2600,19300,2600,12900,15,30,15,40/2,40/2,---,15,30,15,40/2,40/2,---
2,DC,drop-side tarpaulin body,> 13.5 to,Yes,25522,622V,0,1,R2,9-LH,1850,56,0.27/0.63,0.03/0.07,0/0,T1,none,40000,2600,19300,2600,12900,15,30,15,40/2,40/2,---,15,30,15,40/2,40/2,---
2,Dolly,Fifth-wheel,---,No,26601,321,0,0,R2,9-LH,---,---,---,---,---,---,---,---,---,---,---,---,---,---,---,---,---,---,---,---,---,---,---,---
2,Dolly,Fifth-wheel,---,Yes,26602,321V,0,0,R2,9-LH,---,---,---,---,---,---,---,---,---,---,---,---,---,---,---,---,---,---,---,---,---,---,---,---
3,DA,dry box,all weights,No,31101,132,1,1,A2,5-LH,---,---,0.27/0.63,0.03/0.07,0/0,T1,none,40000,2600,19300,2600,12900,20,25,---,55/3,55/3,55/3,25,25,---,50/3,50/3,50/3
3,DA,dry box,all weights,Yes,31102,132V,1,1,A2,5-LH,---,---,0.27/0.63,0.03/0.07,0/0,T1,none,40000,2600,19300,2600,12900,20,25,---,55/3,55/3,55/3,25,25,---,50/3,50/3,50/3
3,DA,refrigerated,all weights,No,31201,133,1,1,A2,5-LH,---,---,0.27/0.63,0.03/0.07,0/0,T1,none,40000,2600,19300,2600,12900,20,25,---,55/3,55/3,55/3,25,25,---,50/3,50/3,50/3
3,DA,conditioned,all weights,No,31301,132,1,1,A2,5-LH,---,---,0.27/0.63,0.03/0.07,0/0,T1,none,40000,2600,19300,2600,12900,20,25,---,55/3,55/3,55/3,25,25,---,50/3,50/3,50/3
3,DA,conditioned,all weights,Yes,31302,132V,1,1,A2,5-LH,---,---,0.27/0.63,0.03/0.07,0/0,T1,none,40000,2600,19300,2600,12900,20,25,---,55/3,55/3,55/3,25,25,---,50/3,50/3,50/3
3,DA,curtain-sided,all weights,No,31401,131,1,1,A2,5-LH,---,---,0.27/0.63,0.03/0.07,0/0,T1,none,40000,2600,19300,2600,12900,20,25,---,55/3,55/3,55/3,25,25,---,50/3,50/3,50/3
3,DA,curtain-sided,all weights,Yes,31402,131V,1,1,A2,5-LH,---,---,0.27/0.63,0.03/0.07,0/0,T1,none,40000,2600,19300,2600,12900,20,25,---,55/3,55/3,55/3,25,25,---,50/3,50/3,50/3
3,DA,drop-side tarpaulin body,all weights,No,31501,131,1,1,A2,5-LH,---,---,0.27/0.63,0.03/0.07,0/0,T1,none,40000,2600,19300,2600,12900,20,25,---,55/3,55/3,55/3,25,25,---,50/3,50/3,50/3
3,DA,drop-side tarpaulin body,all weights,Yes,31502,131V,1,1,A2,5-LH,---,---,0.27/0.63,0.03/0.07,0/0,T1,none,40000,2600,19300,2600,12900,20,25,---,55/3,55/3,55/3,25,25,---,50/3,50/3,50/3
3,DA-BDU,dry box,---,No,32101,232,0,0,A3,10-LH,---,---,---,---,---,T1,none,---,---,---,---,---,---,---,---,---,---,---,---,---,---,---,---,---
3,DA-BDU,refrigerated,---,No,32201,233,0,0,A3,10-LH,---,---,---,---,---,T1,none,---,---,---,---,---,---,---,---,---,---,---,---,---,---,---,---,---
3,DA-BDU,conditioned,---,No,32301,232,0,0,A3,10-LH,---,---,---,---,---,T1,none,---,---,---,---,---,---,---,---,---,---,---,---,---,---,---,---,---
3,DA-BDU,curtain-sided,---,No,32401,231,0,0,A3,10-LH,---,---,---,---,---,T1,none,---,---,---,---,---,---,---,---,---,---,---,---,---,---,---,---,---
3,DA-BDU,drop-side tarpaulin body,---,No,32501,231,0,0,A3,10-LH,---,---,---,---,---,T1,none,---,---,---,---,---,---,---,---,---,---,---,---,---,---,---,---,---
3,DB,dry box,---,No,33101,432,0,1,R3,4-LH,1750,41.4,0.27/0.63,0.03/0.07,0/0,T1,none,40000,2600,19300,2600,12900,20,25,---,55/3,55/3,55/3,20,25, ---,55/3,55/3,55/3
3,DB,dry box,---,Yes,33102,432V,0,1,R3,4-LH,1900,44.1,0.27/0.63,0.03/0.07,0/0,T1,none,40000,2600,19300,2600,12900,20,25,---,55/3,55/3,55/3,20,25, ---,55/3,55/3,55/3
3,DB,refrigerated,---,No,33201,433,0,1,R3,4-LH,2400,38,0.27/0.63,0.03/0.07,0/0,T1,none,40000,2600,19300,2600,12900,20,25,---,55/3,55/3,55/3,20,25, ---,55/3,55/3,55/3
3,DB,conditioned,---,No,33301,432,0,1,R3,4-LH,1750,41.4,0.27/0.63,0.03/0.07,0/0,T1,none,40000,2600,19300,2600,12900,20,25,---,55/3,55/3,55/3,20,25, ---,55/3,55/3,55/3
3,DB,conditioned,---,Yes,33302,432V,0,1,R3,4-LH,1900,44.1,0.27/0.63,0.03/0.07,0/0,T1,none,40000,2600,19300,2600,12900,20,25,---,55/3,55/3,55/3,20,25, ---,55/3,55/3,55/3
3,DB,curtain-sided,---,No,33401,431,0,1,R3,4-LH,1300,41.4,0.27/0.63,0.03/0.07,0/0,T1,none,40000,2600,19300,2600,12900,20,25,---,55/3,55/3,55/3,20,25, ---,55/3,55/3,55/3
3,DB,curtain-sided,---,Yes,33402,431V,0,1,R3,4-LH,1450,44.6,0.27/0.63,0.03/0.07,0/0,T1,none,40000,2600,19300,2600,12900,20,25,---,55/3,55/3,55/3,20,25, ---,55/3,55/3,55/3
3,DB,drop-side tarpaulin body,---,No,33501,431,0,1,R3,4-LH,1300,41.4,0.27/0.63,0.03/0.07,0/0,T1,none,40000,2600,19300,2600,12900,20,25,---,55/3,55/3,55/3,20,25, ---,55/3,55/3,55/3
3,DB,drop-side tarpaulin body,---,Yes,33502,431V,0,1,R3,4-LH,1450,44.6,0.27/0.63,0.03/0.07,0/0,T1,none,40000,2600,19300,2600,12900,20,25,---,55/3,55/3,55/3,20,25, ---,55/3,55/3,55/3
3,DC,dry box,---,No,35101,632,0,1,R3,4-LH,1750,41.4,0.27/0.63,0.03/0.07,0/0,T1,none,40000,2600,19300,2600,12900,20,25,---,55/3,55/3,55/3,20,25, ---,55/3,55/3,55/3
3,DC,dry box,---,Yes,35102,632V,0,1,R3,4-LH,1900,44.1,0.27/0.63,0.03/0.07,0/0,T1,none,40000,2600,19300,2600,12900,20,25,---,55/3,55/3,55/3,20,25, ---,55/3,55/3,55/3
3,DC,refrigerated,---,No,35201,633,0,1,R3,4-LH,2400,38,0.27/0.63,0.03/0.07,0/0,T1,none,40000,2600,19300,2600,12900,20,25,---,55/3,55/3,55/3,20,25, ---,55/3,55/3,55/3
3,DC,conditioned,---,No,35301,632,0,1,R3,4-LH,1750,41.4,0.27/0.63,0.03/0.07,0/0,T1,none,40000,2600,19300,2600,12900,20,25,---,55/3,55/3,55/3,20,25, ---,55/3,55/3,55/3
3,DC,conditioned,---,Yes,35302,632V,0,1,R3,4-LH,1900,44.1,0.27/0.63,0.03/0.07,0/0,T1,none,40000,2600,19300,2600,12900,20,25,---,55/3,55/3,55/3,20,25, ---,55/3,55/3,55/3
3,DC,curtain-sided,---,No,35401,631,0,1,R3,4-LH,1300,41.4,0.27/0.63,0.03/0.07,0/0,T1,none,40000,2600,19300,2600,12900,20,25,---,55/3,55/3,55/3,20,25, ---,55/3,55/3,55/3
3,DC,curtain-sided,---,Yes,35402,631V,0,1,R3,4-LH,1450,44.6,0.27/0.63,0.03/0.07,0/0,T1,none,40000,2600,19300,2600,12900,20,25,---,55/3,55/3,55/3,20,25, ---,55/3,55/3,55/3
3,DC,drop-side tarpaulin body,---,No,35501,631,0,1,R3,4-LH,1300,41.4,0.27/0.63,0.03/0.07,0/0,T1,none,40000,2600,19300,2600,12900,20,25,---,55/3,55/3,55/3,20,25, ---,55/3,55/3,55/3
3,DC,drop-side tarpaulin body,---,Yes,35502,631V,0,1,R3,4-LH,1450,44.6,0.27/0.63,0.03/0.07,0/0,T1,none,40000,2600,19300,2600,12900,20,25,---,55/3,55/3,55/3,20,25, ---,55/3,55/3,55/3
4,DA,dry box,---,No,41101,142,0,0,---,---,---,---,---,---,---,T2b,none,---,---,---,---,---,---,---,---,---,---,---,---,---,---,---,---,---
4,DA,dry box,---,Yes,41102,142V,0,0,---,---,---,---,---,---,---,T2b,none,---,---,---,---,---,---,---,---,---,---,---,---,---,---,---,---,---
4,DA,refrigerated,---,No,41201,143,0,0,---,---,---,---,---,---,---,T2b,none,---,---,---,---,---,---,---,---,---,---,---,---,---,---,---,---,---
4,DA,conditioned,---,No,41301,142,0,0,---,---,---,---,---,---,---,T2b,none,---,---,---,---,---,---,---,---,---,---,---,---,---,---,---,---,---
4,DA,conditioned,---,Yes,41302,142V,0,0,---,---,---,---,---,---,---,T2b,none,---,---,---,---,---,---,---,---,---,---,---,---,---,---,---,---,---
4,DA,curtain-sided,---,No,41401,141,0,0,---,---,---,---,---,---,---,T2b,none,---,---,---,---,---,---,---,---,---,---,---,---,---,---,---,---,---
4,DA,curtain-sided,---,Yes,41402,141V,0,0,---,---,---,---,---,---,---,T2b,none,---,---,---,---,---,---,---,---,---,---,---,---,---,---,---,---,---
4,DA,drop-side tarpaulin body,---,No,41501,141,0,0,---,---,---,---,---,---,---,T2b,none,---,---,---,---,---,---,---,---,---,---,---,---,---,---,---,---,---
4,DA,drop-side tarpaulin body,---,Yes,41502,141V,0,0,---,---,---,---,---,---,---,T2b,none,---,---,---,---,---,---,---,---,---,---,---,---,---,---,---,---,---
4,DB,dry box,---,No,43101,442,0,0,---,---,---,---,---,---,---,T2b,none,---,---,---,---,---,---,---,---,---,---,---,---,---,---,---,---,---
4,DB,dry box,---,Yes,43102,442V,0,0,---,---,---,---,---,---,---,T2b,none,---,---,---,---,---,---,---,---,---,---,---,---,---,---,---,---,---
4,DB,refrigerated,---,No,43201,443,0,0,---,---,---,---,---,---,---,T2b,none,---,---,---,---,---,---,---,---,---,---,---,---,---,---,---,---,---
4,DB,conditioned,---,No,43301,442,0,0,---,---,---,---,---,---,---,T2b,none,---,---,---,---,---,---,---,---,---,---,---,---,---,---,---,---,---
4,DB,conditioned,---,Yes,43302,442V,0,0,---,---,---,---,---,---,---,T2b,none,---,---,---,---,---,---,---,---,---,---,---,---,---,---,---,---,---
4,DB,curtain-sided,---,No,43401,441,0,0,---,---,---,---,---,---,---,T2b,none,---,---,---,---,---,---,---,---,---,---,---,---,---,---,---,---,---
4,DB,curtain-sided,---,Yes,43402,441V,0,0,---,---,---,---,---,---,---,T2b,none,---,---,---,---,---,---,---,---,---,---,---,---,---,---,---,---,---
4,DB,drop-side tarpaulin body,---,No,43501,441,0,0,---,---,---,---,---,---,---,T2b,none,---,---,---,---,---,---,---,---,---,---,---,---,---,---,---,---,---
4,DB,drop-side tarpaulin body,---,Yes,43502,441V,0,0,---,---,---,---,---,---,---,T2b,none,---,---,---,---,---,---,---,---,---,---,---,---,---,---,---,---,---
4,DB-BDU,dry box,---,No,44101,542,0,0,---,---,---,---,---,---,---,T2b,none,---,---,---,---,---,---,---,---,---,---,---,---,---,---,---,---,---
4,DB-BDU,refrigerated,---,No,44201,543,0,0,---,---,---,---,---,---,---,T2b,none,---,---,---,---,---,---,---,---,---,---,---,---,---,---,---,---,---
4,DB-BDU,conditioned,---,No,44301,542,0,0,---,---,---,---,---,---,---,T2b,none,---,---,---,---,---,---,---,---,---,---,---,---,---,---,---,---,---
4,DB-BDU,curtain-sided,---,No,44401,541,0,0,---,---,---,---,---,---,---,T2b,none,---,---,---,---,---,---,---,---,---,---,---,---,---,---,---,---,---
4,DB-BDU,drop-side tarpaulin body,---,No,44501,541,0,0,---,---,---,---,---,---,---,T2b,none,---,---,---,---,---,---,---,---,---,---,---,---,---,---,---,---,---
