{
  "Header": "AAUX",
  "Body": {
    "Actuations": {
      "Brakes": 27,
      "CycleTime": 15000,
      "Kneeling": 0,
      "Park brake + 2 doors": 6
    },
    "ElectricalUserInputsConfig": {
      "PowerNetVoltage": 26.3,
      "AlternatorMap": "testAlternatorMap.csv",
      "AlternatorGearEfficiency": 0.8,
      "ElectricalConsumers": {
        "AverageCurrentDemandInclBaseLoad": 59.782177,
        "AverageCurrentDemandWithoutBaseLoad": 35.631777385159026
      },
      "DoorActuationTimeSecond": 4,
      "ResultCardIdle":  [],
      "ResultCardTraction":[],
      "ResultCardOverrun": [],
      "SmartElectrical": false
    },
    "PneumaticUserInputsConfig": {
      "AdBlueDosing": "Pneumatic",
      "AirSuspensionControl": "Electrically",
      "CompressorMap": "testCompressorMap.csv",
      "CompressorGearEfficiency": 0.8,
      "CompressorGearRatio": 1.0,
      "Doors": "Pneumatic",
      "KneelingHeightMillimeters": 80.0,
      "SmartAirCompression": true,
      "SmartRegeneration": true
    },
    "PneumaticAuxillariesConfig": {
      "AdBlueNIperMinute": 21.25,
      "AirControlledSuspensionNIperMinute": 15.0,
      "BrakingNIperKG": 0.0005,
      "BreakingPerKneelingNIperKGinMM": 6.6E-05,
      "DeadVolBlowOutsPerLitresperHour": 24.0,
      "DeadVolumeLitres": 30.0,
      "NonSmartRegenFractionTotalAirDemand": 0.26,
      "OverrunUtilisationForCompressionFraction": 0.97,
      "PerDoorOpeningNI": 12.7,
      "PerStopBrakeActuationNIperKG": 0.00064,
      "SmartRegenFractionTotalAirDemand": 0.12
    },
    "SSMFilePath": "ssm.AHSM"
  }
}