Algorithm       Hash                                                                   Path
---------       ----                                                                   ----
SHA256          81DC59C16E0B6F4B637963FD00A79AA26F253E404AF874DF845BF66CBA51D5EA       2019_02_01-VECTO-3.3.1.1492.zip


Algorithm       Hash                                                                   Path
---------       ----                                                                   ----
SHA256          2B533C6FEAACC281048F1498809F69A2EC2EBC72D08DBBF6226933BFBFDADDC2       hashingcmd.exe
SHA256          A3BE90C157538A1443F36BB4338FF57C075CA26E487BB8D802F8377223074B7F       HashingTool.exe
SHA256          1246C06E89F967C57B3972FE3688D8D61BCD9758F99DC1EFDBA20D25F4D06253       VECTO.exe
SHA256          4574AC2391B5A4F4D5CE7FBFBFAE342841685248BD2C786FD52C8E4BBE997965       vectocmd.exe
SHA256          084DDF21C63E7FFA24F9F9F543B7BAA0A0DEC87B6ABC958E3C7D85A099156BA6       AdvancedAuxiliaryInterfaces.dll
SHA256          B0C0017C29AADA1F0EFDAB9B238962B45E71EEAAFF5B7C260B3CDD281102FBE0       BusAuxiliaries.dll
SHA256          DF8EC2E0245829DDEC5B79F1918C3AE3A3FA540A5A0E3C410E2B6EF0BEBC7927       Newtonsoft.Json.dll
SHA256          A4E7600C2A9CBC0CF12334FD5E313EE47F61F669E3D3FCB098968D33D9FB0521       NLog.dll
SHA256          9B7EB6DE62FF1E6A812FA47697FDB2ABCEAD85AA2554ABF12416FC569DD4462E       Omu.ValueInjecter.dll
SHA256          951D5FB8C013F83794E84B557261E6E2285356855F3B788FAE2A3A4283E27FA6       VectoCommon.dll
SHA256          4D591F2C09CC88C738996DAF306509702A61C6E71DF4576A2A08A590AAD375BA       VectoCore.dll
SHA256          2BC3BFA5565B18A061403DAC883A1813E32FD4AB2F20AA8ECC083B11C6B25B39       VectoHashing.dll

